Size, Run1, Run2, Run3, Run4, Run5, Run6, Run7, Run8, Run9, Run10, Run11, Run12, Run13, Run14, Run15
1000, 250709, 242687, 246293, 253842, 245512, 257080, 250437, 242346, 255154, 248508, 248353, 250258, 240456, 248108, 252953
1500, 565420, 556361, 559729, 571139, 557149, 563482, 557744, 578149, 545752, 564753, 548581, 569293, 550181, 570253, 567331
2000, 1002927, 982787, 996556, 1014264, 1004550, 951106, 993466, 997947, 977059, 1005179, 997620, 1010180, 996546, 977722, 994061
2500, 1555329, 1579316, 1548700, 1544115, 1582884, 1550938, 1535499, 1605678, 1581997, 1562069, 1556793, 1527392, 1567402, 1533335, 1556965
3000, 2247065, 2309544, 2227083, 2238275, 2223929, 2237464, 2250964, 2208938, 2209065, 2262778, 2275410, 2305431, 2249230, 2243532, 2192294
3500, 3023236, 3107570, 3109398, 3102152, 3037203, 3089251, 3064849, 3059808, 3086755, 3077481, 3097416, 3027159, 3064691, 3124540, 3071639
4000, 4007372, 3986222, 4006172, 3981781, 3997067, 3992266, 4046489, 4014060, 4065474, 3982566, 4054193, 4042806, 3950022, 4001214, 4050050
4500, 5077715, 5082710, 5087398, 5060025, 5115487, 5161668, 5029762, 4972923, 5057564, 5064508, 5031376, 5049973, 5196377, 5077656, 5045885
5000, 6214369, 6210221, 6271657, 6308710, 6188874, 6294595, 6312599, 6317589, 6207600, 6247508, 6168584, 6229390, 6164715, 6251583, 6206647
5500, 7493329, 7584704, 7507816, 7418025, 7627842, 7539697, 7602684, 7504923, 7613482, 7697718, 7635875, 7555194, 7533195, 7542322, 7589255
6000, 8969864, 9083925, 8982171, 8934394, 9044384, 8916524, 9132295, 9156509, 9011437, 8877042, 8998287, 8993031, 9135995, 8858951, 9120159
6500, 10516490, 10544236, 10483228, 10528925, 10579088, 10534604, 10432257, 10320675, 10527163, 10538481, 10622890, 10440585, 10758287, 10575714, 10418273
7000, 12265573, 12334492, 12283423, 12377072, 12248084, 12134752, 12218403, 12063159, 12456956, 12238803, 12231798, 12216303, 12255746, 12254776, 12054548
7500, 14160942, 13962395, 14066487, 14083317, 6838580, 14014378, 14074357, 14044916, 14161942, 14001664, 13952625, 14109490, 14035219, 14191648, 13886698
